<?xml version="1.0" encoding="UTF-8" standalone="no"?>
<!-- Created with Inkscape (http://www.inkscape.org/) -->

<svg
   xmlns:dc="http://purl.org/dc/elements/1.1/"
   xmlns:cc="http://creativecommons.org/ns#"
   xmlns:rdf="http://www.w3.org/1999/02/22-rdf-syntax-ns#"
   xmlns:svg="http://www.w3.org/2000/svg"
   xmlns="http://www.w3.org/2000/svg"
   xmlns:xlink="http://www.w3.org/1999/xlink"
   xmlns:sodipodi="http://sodipodi.sourceforge.net/DTD/sodipodi-0.dtd"
   xmlns:inkscape="http://www.inkscape.org/namespaces/inkscape"
   width="161.59433mm"
   height="86.888832mm"
   viewBox="0 0 161.59433 86.888825"
   version="1.1"
   id="svg2866"
   inkscape:version="0.92.5 (2060ec1f9f, 2020-04-08)"
   sodipodi:docname="exemple-injection.svg">
  <defs
     id="defs2860">
    <linearGradient
       inkscape:collect="always"
       xlink:href="#SVGID_2_-8"
       id="linearGradient968"
       gradientUnits="userSpaceOnUse"
       gradientTransform="translate(0,42.228586)"
       x1="45.426029"
       y1="81.988472"
       x2="45.960567"
       y2="27.931915" />
    <linearGradient
       gradientTransform="matrix(0.26458333,0,0,0.26458333,19.951086,58.046006)"
       y2="180.5629"
       x2="44.238098"
       y1="254.82671"
       x1="41.026901"
       gradientUnits="userSpaceOnUse"
       id="SVGID_2_-8">
      <stop
         id="stop2516-3"
         style="stop-color:#43A9DB"
         offset="0" />
      <stop
         id="stop2518-80"
         style="stop-color:#2B4B97"
         offset="1" />
    </linearGradient>
    <linearGradient
       inkscape:collect="always"
       xlink:href="#SVGID_2_-8"
       id="linearGradient3850"
       gradientUnits="userSpaceOnUse"
       gradientTransform="translate(0.04182146,87.58118)"
       x1="45.426029"
       y1="81.988472"
       x2="45.960567"
       y2="27.931915" />
    <linearGradient
       inkscape:collect="always"
       xlink:href="#SVGID_2_-8"
       id="linearGradient3980"
       gradientUnits="userSpaceOnUse"
       gradientTransform="translate(0.04182146,87.58118)"
       x1="45.426029"
       y1="81.988472"
       x2="45.960567"
       y2="27.931915" />
    <marker
       inkscape:stockid="Arrow1Lend"
       orient="auto"
       refY="0"
       refX="0"
       id="Arrow1Lend"
       style="overflow:visible"
       inkscape:isstock="true">
      <path
         id="path1256"
         d="M 0,0 5,-5 -12.5,0 5,5 Z"
         style="fill:#000000;fill-opacity:1;fill-rule:evenodd;stroke:#000000;stroke-width:1.00000003pt;stroke-opacity:1"
         transform="matrix(-0.8,0,0,-0.8,-10,0)"
         inkscape:connector-curvature="0" />
    </marker>
    <marker
       inkscape:stockid="Arrow1Lend"
       orient="auto"
       refY="0"
       refX="0"
       id="Arrow1Lend-8"
       style="overflow:visible"
       inkscape:isstock="true">
      <path
         id="path1256-6"
         d="M 0,0 5,-5 -12.5,0 5,5 Z"
         style="fill:#000000;fill-opacity:1;fill-rule:evenodd;stroke:#000000;stroke-width:1.00000003pt;stroke-opacity:1"
         transform="matrix(-0.8,0,0,-0.8,-10,0)"
         inkscape:connector-curvature="0" />
    </marker>
    <marker
       inkscape:stockid="Arrow1Lend"
       orient="auto"
       refY="0"
       refX="0"
       id="Arrow1Lend-8-4"
       style="overflow:visible"
       inkscape:isstock="true">
      <path
         id="path1256-6-7"
         d="M 0,0 5,-5 -12.5,0 5,5 Z"
         style="fill:#000000;fill-opacity:1;fill-rule:evenodd;stroke:#000000;stroke-width:1.00000003pt;stroke-opacity:1"
         transform="matrix(-0.8,0,0,-0.8,-10,0)"
         inkscape:connector-curvature="0" />
    </marker>
    <marker
       inkscape:stockid="Arrow1Lend"
       orient="auto"
       refY="0"
       refX="0"
       id="Arrow1Lend-8-4-9"
       style="overflow:visible"
       inkscape:isstock="true">
      <path
         id="path1256-6-7-9"
         d="M 0,0 5,-5 -12.5,0 5,5 Z"
         style="fill:#000000;fill-opacity:1;fill-rule:evenodd;stroke:#000000;stroke-width:1.00000003pt;stroke-opacity:1"
         transform="matrix(-0.8,0,0,-0.8,-10,0)"
         inkscape:connector-curvature="0" />
    </marker>
    <linearGradient
       inkscape:collect="always"
       xlink:href="#SVGID_2_-8-2"
       id="linearGradient2844"
       gradientUnits="userSpaceOnUse"
       gradientTransform="matrix(0.26458333,0,0,0.26458333,197.15078,77.022143)"
       x1="41.026901"
       y1="254.82671"
       x2="44.238098"
       y2="180.5629" />
    <linearGradient
       gradientTransform="matrix(0.26458333,0,0,0.26458333,197.15078,77.022143)"
       y2="180.5629"
       x2="44.238098"
       y1="254.82671"
       x1="41.026901"
       gradientUnits="userSpaceOnUse"
       id="SVGID_2_-8-2">
      <stop
         id="stop2516-3-9"
         style="stop-color:#43A9DB"
         offset="0" />
      <stop
         id="stop2518-80-3"
         style="stop-color:#2B4B97"
         offset="1" />
    </linearGradient>
    <linearGradient
       inkscape:collect="always"
       xlink:href="#SVGID_2_-8"
       id="linearGradient6255"
       gradientUnits="userSpaceOnUse"
       gradientTransform="translate(0.04182146,87.58118)"
       x1="45.426029"
       y1="81.988472"
       x2="45.960567"
       y2="27.931915" />
  </defs>
  <sodipodi:namedview
     id="base"
     pagecolor="#ffffff"
     bordercolor="#666666"
     borderopacity="1.0"
     inkscape:pageopacity="0.0"
     inkscape:pageshadow="2"
     inkscape:zoom="1.4"
     inkscape:cx="339.24302"
     inkscape:cy="157.13031"
     inkscape:document-units="mm"
     inkscape:current-layer="layer1"
     showgrid="false"
     inkscape:window-width="1848"
     inkscape:window-height="1016"
     inkscape:window-x="72"
     inkscape:window-y="27"
     inkscape:window-maximized="1"
     fit-margin-top="3"
     fit-margin-left="3"
     fit-margin-right="3"
     fit-margin-bottom="3" />
  <metadata
     id="metadata2863">
    <rdf:RDF>
      <cc:Work
         rdf:about="">
        <dc:format>image/svg+xml</dc:format>
        <dc:type
           rdf:resource="http://purl.org/dc/dcmitype/StillImage" />
        <dc:title></dc:title>
      </cc:Work>
    </rdf:RDF>
  </metadata>
  <g
     inkscape:label="Layer 1"
     inkscape:groupmode="layer"
     id="layer1"
     transform="translate(-6.3193537,-106.17489)">
    <g
       id="g3943">
      <rect
         y="115.24583"
         x="9.4693537"
         height="54.701797"
         width="72.909508"
         id="rect898"
         style="opacity:1;fill:url(#linearGradient6255);fill-opacity:1;fill-rule:nonzero;stroke:#84c8e8;stroke-width:0.30000001;stroke-linecap:round;stroke-miterlimit:4;stroke-dasharray:none;stroke-dashoffset:0;stroke-opacity:1;paint-order:stroke markers fill" />
      <text
         id="text954"
         y="121.29575"
         x="45.894135"
         style="font-style:normal;font-variant:normal;font-weight:bold;font-stretch:normal;font-size:4.23333311px;line-height:1.25;font-family:'Courier New';-inkscape-font-specification:'Courier New, Bold';font-variant-ligatures:normal;font-variant-caps:normal;font-variant-numeric:normal;font-feature-settings:normal;text-align:center;letter-spacing:0px;word-spacing:0px;writing-mode:lr-tb;text-anchor:middle;fill:#ffffff;fill-opacity:1;stroke:none;stroke-width:0.26458332"
         xml:space="preserve"><tspan
           id="tspan960"
           style="font-style:normal;font-variant:normal;font-weight:bold;font-stretch:normal;font-size:4.23333311px;font-family:'Courier New';-inkscape-font-specification:'Courier New, Bold';font-variant-ligatures:normal;font-variant-caps:normal;font-variant-numeric:normal;font-feature-settings:normal;text-align:center;writing-mode:lr-tb;text-anchor:middle;fill:#ffffff;fill-opacity:1;stroke-width:0.26458332"
           y="121.29575"
           x="45.894135"
           sodipodi:role="line">info.jtips.spring.service</tspan></text>
      <rect
         y="109.32489"
         x="9.4693537"
         height="5.7538896"
         width="21.693733"
         id="rect898-3"
         style="opacity:1;fill:#2b4b97;fill-opacity:1;fill-rule:nonzero;stroke:#84c8e8;stroke-width:0.30000001;stroke-linecap:round;stroke-miterlimit:4;stroke-dasharray:none;stroke-dashoffset:0;stroke-opacity:1;paint-order:stroke markers fill" />
    </g>
    <g
       transform="translate(82.384819)"
       id="g3943-0">
      <rect
         y="115.24583"
         x="9.4693537"
         height="54.701797"
         width="72.909508"
         id="rect898-2"
         style="opacity:1;fill:url(#linearGradient3980);fill-opacity:1;fill-rule:nonzero;stroke:#84c8e8;stroke-width:0.30000001;stroke-linecap:round;stroke-miterlimit:4;stroke-dasharray:none;stroke-dashoffset:0;stroke-opacity:1;paint-order:stroke markers fill" />
      <text
         id="text954-1"
         y="121.29575"
         x="45.894135"
         style="font-style:normal;font-variant:normal;font-weight:bold;font-stretch:normal;font-size:4.23333311px;line-height:1.25;font-family:'Courier New';-inkscape-font-specification:'Courier New, Bold';font-variant-ligatures:normal;font-variant-caps:normal;font-variant-numeric:normal;font-feature-settings:normal;text-align:center;letter-spacing:0px;word-spacing:0px;writing-mode:lr-tb;text-anchor:middle;fill:#ffffff;fill-opacity:1;stroke:none;stroke-width:0.26458332"
         xml:space="preserve"><tspan
           id="tspan960-0"
           style="font-style:normal;font-variant:normal;font-weight:bold;font-stretch:normal;font-size:4.23333311px;font-family:'Courier New';-inkscape-font-specification:'Courier New, Bold';font-variant-ligatures:normal;font-variant-caps:normal;font-variant-numeric:normal;font-feature-settings:normal;text-align:center;writing-mode:lr-tb;text-anchor:middle;fill:#ffffff;fill-opacity:1;stroke-width:0.26458332"
           y="121.29575"
           x="45.894135"
           sodipodi:role="line">info.jtips.spring.dao</tspan></text>
      <rect
         y="109.32489"
         x="9.4693537"
         height="5.7538896"
         width="21.693733"
         id="rect898-3-5"
         style="opacity:1;fill:#2b4b97;fill-opacity:1;fill-rule:nonzero;stroke:#84c8e8;stroke-width:0.30000001;stroke-linecap:round;stroke-miterlimit:4;stroke-dasharray:none;stroke-dashoffset:0;stroke-opacity:1;paint-order:stroke markers fill" />
    </g>
    <g
       id="g3993"
       transform="translate(3.3212843,-6.4255952)">
      <rect
         y="148.17955"
         x="16.711456"
         height="9.260417"
         width="51.782734"
         id="rect3988"
         style="opacity:1;fill:#c8e6f5;fill-opacity:1;fill-rule:nonzero;stroke:#144d68;stroke-width:0.5;stroke-linecap:round;stroke-miterlimit:4;stroke-dasharray:none;stroke-dashoffset:0;stroke-opacity:1;paint-order:stroke markers fill" />
      <text
         id="text3986"
         y="154.55022"
         x="18.860603"
         style="font-style:normal;font-variant:normal;font-weight:bold;font-stretch:normal;font-size:5.64444447px;line-height:1.25;font-family:'Courier New';-inkscape-font-specification:'Courier New, Bold';font-variant-ligatures:normal;font-variant-caps:normal;font-variant-numeric:normal;font-feature-settings:normal;text-align:start;letter-spacing:0px;word-spacing:0px;writing-mode:lr-tb;text-anchor:start;fill:#000000;fill-opacity:1;stroke:none;stroke-width:0.26458332"
         xml:space="preserve"><tspan
           style="font-style:normal;font-variant:normal;font-weight:bold;font-stretch:normal;font-size:5.64444447px;font-family:'Courier New';-inkscape-font-specification:'Courier New, Bold';font-variant-ligatures:normal;font-variant-caps:normal;font-variant-numeric:normal;font-feature-settings:normal;text-align:start;writing-mode:lr-tb;text-anchor:start;stroke-width:0.26458332"
           y="154.55022"
           x="18.860603"
           id="tspan3984"
           sodipodi:role="line">ProductService</tspan></text>
    </g>
    <g
       id="g4821">
      <rect
         y="141.75395"
         x="102.41756"
         height="9.260417"
         width="51.782734"
         id="rect3988-8"
         style="opacity:1;fill:#c8e6f5;fill-opacity:1;fill-rule:nonzero;stroke:#144d68;stroke-width:0.5;stroke-linecap:round;stroke-miterlimit:4;stroke-dasharray:none;stroke-dashoffset:0;stroke-opacity:1;paint-order:stroke markers fill" />
      <text
         id="text3986-5"
         y="148.12462"
         x="111.25846"
         style="font-style:normal;font-variant:normal;font-weight:bold;font-stretch:normal;font-size:5.64444447px;line-height:1.25;font-family:'Courier New';-inkscape-font-specification:'Courier New, Bold';font-variant-ligatures:normal;font-variant-caps:normal;font-variant-numeric:normal;font-feature-settings:normal;text-align:start;letter-spacing:0px;word-spacing:0px;writing-mode:lr-tb;text-anchor:start;fill:#000000;fill-opacity:1;stroke:none;stroke-width:0.26458332"
         xml:space="preserve"><tspan
           style="font-style:normal;font-variant:normal;font-weight:bold;font-stretch:normal;font-size:5.64444447px;font-family:'Courier New';-inkscape-font-specification:'Courier New, Bold';font-variant-ligatures:normal;font-variant-caps:normal;font-variant-numeric:normal;font-feature-settings:normal;text-align:start;writing-mode:lr-tb;text-anchor:start;stroke-width:0.26458332"
           y="148.12462"
           x="111.25846"
           id="tspan3984-0"
           sodipodi:role="line">ProductDAO</tspan></text>
    </g>
    <path
       sodipodi:nodetypes="cc"
       inkscape:connector-curvature="0"
       id="path1251"
       d="M 71.810552,146.25184 H 101.35922"
       style="fill:none;stroke:#000000;stroke-width:0.40000001;stroke-linecap:butt;stroke-linejoin:miter;stroke-miterlimit:4;stroke-dasharray:none;stroke-opacity:1;marker-end:url(#Arrow1Lend)" />
    <g
       transform="translate(2.8302612e-6,38.988267)"
       id="g4821-4">
      <rect
         y="141.82654"
         x="106.57438"
         height="8.9998293"
         width="41.95718"
         id="rect3988-8-6"
         style="opacity:1;fill:#dfdfdf;fill-opacity:1;fill-rule:nonzero;stroke:#3b3f41;stroke-width:0.49817109;stroke-linecap:round;stroke-miterlimit:4;stroke-dasharray:none;stroke-dashoffset:0;stroke-opacity:1;paint-order:stroke markers fill" />
      <text
         id="text3986-5-2"
         y="148.12462"
         x="111.25846"
         style="font-style:normal;font-variant:normal;font-weight:bold;font-stretch:normal;font-size:5.64444447px;line-height:1.25;font-family:'Courier New';-inkscape-font-specification:'Courier New, Bold';font-variant-ligatures:normal;font-variant-caps:normal;font-variant-numeric:normal;font-feature-settings:normal;text-align:start;letter-spacing:0px;word-spacing:0px;writing-mode:lr-tb;text-anchor:start;fill:#000000;fill-opacity:1;stroke:none;stroke-width:0.26458332"
         xml:space="preserve"><tspan
           style="font-style:normal;font-variant:normal;font-weight:bold;font-stretch:normal;font-size:5.64444447px;font-family:'Courier New';-inkscape-font-specification:'Courier New, Bold';font-variant-ligatures:normal;font-variant-caps:normal;font-variant-numeric:normal;font-feature-settings:normal;text-align:start;writing-mode:lr-tb;text-anchor:start;stroke-width:0.26458332"
           y="148.12462"
           x="111.25846"
           id="tspan3984-0-5"
           sodipodi:role="line">DataSource</tspan></text>
    </g>
    <path
       sodipodi:nodetypes="cc"
       inkscape:connector-curvature="0"
       id="path1251-2"
       d="m 128.32145,151.08163 v 28.60373"
       style="fill:none;stroke:#000000;stroke-width:0.40000001;stroke-linecap:butt;stroke-linejoin:miter;stroke-miterlimit:4;stroke-dasharray:none;stroke-opacity:1;marker-end:url(#Arrow1Lend-8)" />
    <g
       transform="matrix(1.0000451,0,0,0.99233659,-61.803433,40.077807)"
       id="g4821-4-2">
      <rect
         y="141.75395"
         x="107.15479"
         height="9.0714264"
         width="42.333324"
         id="rect3988-8-6-4"
         style="opacity:1;fill:#dfdfdf;fill-opacity:1;fill-rule:nonzero;stroke:#3b3f41;stroke-width:0.5;stroke-linecap:round;stroke-miterlimit:4;stroke-dasharray:none;stroke-dashoffset:0;stroke-opacity:1;paint-order:stroke markers fill" />
      <text
         id="text3986-5-2-0"
         y="148.12462"
         x="109.65179"
         style="font-style:normal;font-variant:normal;font-weight:bold;font-stretch:normal;font-size:5.64444447px;line-height:1.25;font-family:'Courier New';-inkscape-font-specification:'Courier New, Bold';font-variant-ligatures:normal;font-variant-caps:normal;font-variant-numeric:normal;font-feature-settings:normal;text-align:start;letter-spacing:0px;word-spacing:0px;writing-mode:lr-tb;text-anchor:start;fill:#000000;fill-opacity:1;stroke:none;stroke-width:0.26458332"
         xml:space="preserve"><tspan
           style="font-style:normal;font-variant:normal;font-weight:bold;font-stretch:normal;font-size:5.64444447px;font-family:'Courier New';-inkscape-font-specification:'Courier New, Bold';font-variant-ligatures:normal;font-variant-caps:normal;font-variant-numeric:normal;font-feature-settings:normal;text-align:start;writing-mode:lr-tb;text-anchor:start;stroke-width:0.26458332"
           y="148.12462"
           x="109.65179"
           id="tspan3984-0-5-6"
           sodipodi:role="line">Transaction</tspan></text>
    </g>
    <path
       sodipodi:nodetypes="cc"
       inkscape:connector-curvature="0"
       id="path1251-2-2"
       d="m 62.819632,151.01438 v 28.60373"
       style="fill:none;stroke:#000000;stroke-width:0.40000001;stroke-linecap:butt;stroke-linejoin:miter;stroke-miterlimit:4;stroke-dasharray:none;stroke-opacity:1;marker-end:url(#Arrow1Lend-8-4)" />
    <g
       transform="translate(-94.001146,38.921008)"
       id="g4821-4-2-0">
      <rect
         y="141.63995"
         x="107.15636"
         height="8.9948721"
         width="29.479002"
         id="rect3988-8-6-4-8"
         style="opacity:1;fill:#dfdfdf;fill-opacity:1;fill-rule:nonzero;stroke:#3b3f41;stroke-width:0.50312787;stroke-linecap:round;stroke-miterlimit:4;stroke-dasharray:none;stroke-dashoffset:0;stroke-opacity:1;paint-order:stroke markers fill" />
      <text
         id="text3986-5-2-0-1"
         y="148.12462"
         x="109.65179"
         style="font-style:normal;font-variant:normal;font-weight:bold;font-stretch:normal;font-size:5.64444447px;line-height:1.25;font-family:'Courier New';-inkscape-font-specification:'Courier New, Bold';font-variant-ligatures:normal;font-variant-caps:normal;font-variant-numeric:normal;font-feature-settings:normal;text-align:start;letter-spacing:0px;word-spacing:0px;writing-mode:lr-tb;text-anchor:start;fill:#000000;fill-opacity:1;stroke:none;stroke-width:0.26458332"
         xml:space="preserve"><tspan
           style="font-style:normal;font-variant:normal;font-weight:bold;font-stretch:normal;font-size:5.64444447px;font-family:'Courier New';-inkscape-font-specification:'Courier New, Bold';font-variant-ligatures:normal;font-variant-caps:normal;font-variant-numeric:normal;font-feature-settings:normal;text-align:start;writing-mode:lr-tb;text-anchor:start;stroke-width:0.26458332"
           y="148.12462"
           x="109.65179"
           id="tspan3984-0-5-6-3"
           sodipodi:role="line">Logging</tspan></text>
    </g>
    <path
       sodipodi:nodetypes="cc"
       inkscape:connector-curvature="0"
       id="path1251-2-2-1"
       d="m 29.557747,151.01438 v 28.60373"
       style="fill:none;stroke:#000000;stroke-width:0.40000001;stroke-linecap:butt;stroke-linejoin:miter;stroke-miterlimit:4;stroke-dasharray:none;stroke-opacity:1;marker-end:url(#Arrow1Lend-8-4-9)" />
    <g
       id="g950"
       transform="matrix(0.40398271,0,0,0.42639731,77.710507,129.51594)">
      <circle
         style="fill:url(#linearGradient2844);stroke-width:0.26458332"
         id="circle2520-40"
         r="7.4260602"
         cy="134.57245"
         cx="208.43262"
         inkscape:export-xdpi="480.99216"
         inkscape:export-ydpi="480.99216" />
      <path
         inkscape:connector-curvature="0"
         style="opacity:0.68000034;fill:#ffffff;stroke-width:0.26458332"
         id="path2522-9"
         d="m 212.58208,140.24327 c -3.83408,1.456 -8.12245,-0.47228 -9.57818,-4.30662 -1.03638,-2.72944 -0.35666,-5.68801 1.50389,-7.69197 -2.91492,1.84891 -4.2299,5.54964 -2.95725,8.9027 1.45574,3.83487 5.74437,5.76289 9.57845,4.30715 1.1049,-0.41962 2.04999,-1.07473 2.80326,-1.88595 -0.41857,0.26512 -0.86916,0.49239 -1.35017,0.67469 z" />
      <path
         d="m 206.58899,134.1348 c -0.18918,-0.0495 -0.37598,-0.0569 -0.56066,-0.0225 -0.18441,0.0347 -0.36142,0.10504 -0.53075,0.21194 -0.16907,0.10689 -0.32729,0.23997 -0.47387,0.39872 -0.11404,0.12383 -0.21616,0.26088 -0.30559,0.41169 -0.0894,0.15082 -0.15187,0.30666 -0.18653,0.46858 -0.0344,0.16166 -0.0304,0.32015 0.0119,0.47572 0.0426,0.15505 0.13891,0.29925 0.28919,0.43207 0.12621,0.11139 0.26167,0.17542 0.40561,0.1905 0.14419,0.0154 0.28998,0.003 0.43682,-0.0386 0.14658,-0.041 0.29157,-0.10002 0.43366,-0.17754 0.14208,-0.0773 0.26881,-0.1524 0.37967,-0.22542 l 0.85514,-0.59055 c 0.17065,-0.13785 0.3593,-0.25665 0.56647,-0.35693 0.20664,-0.10027 0.41725,-0.16536 0.6305,-0.19579 0.21326,-0.0304 0.43074,-0.0172 0.65141,0.0389 0.22092,0.0566 0.43365,0.17542 0.63791,0.35613 0.25267,0.22357 0.41566,0.46964 0.49,0.73845 0.0741,0.26908 0.0865,0.53949 0.0378,0.81148 -0.0487,0.27226 -0.14975,0.53843 -0.30241,0.79904 -0.15293,0.26062 -0.32703,0.49689 -0.52256,0.70909 -0.49397,0.53578 -1.02341,0.85619 -1.58856,0.96017 -0.56515,0.10398 -1.1549,-0.073 -1.76953,-0.53129 l 0.51303,-0.55668 c 0.40613,0.31697 0.82259,0.43683 1.24883,0.35904 0.42572,-0.0773 0.80989,-0.30162 1.152,-0.67257 0.12488,-0.13547 0.23892,-0.2884 0.34184,-0.45985 0.10292,-0.17092 0.17515,-0.35004 0.21722,-0.53763 0.0421,-0.18759 0.0442,-0.36989 0.006,-0.54822 -0.0384,-0.1778 -0.13811,-0.33866 -0.3003,-0.48233 -0.13811,-0.1225 -0.27966,-0.19659 -0.42466,-0.22331 -0.14472,-0.0267 -0.2921,-0.0206 -0.44185,0.0177 -0.15002,0.0384 -0.30189,0.0992 -0.45535,0.18256 -0.15319,0.0836 -0.30189,0.1741 -0.44609,0.27094 l -0.82179,0.57203 c -0.21643,0.14023 -0.42677,0.25902 -0.63103,0.35613 -0.204,0.0974 -0.40587,0.16245 -0.60484,0.19473 -0.19897,0.0323 -0.39635,0.0212 -0.59108,-0.0339 -0.19502,-0.055 -0.39134,-0.17012 -0.59004,-0.34581 -0.23442,-0.20743 -0.38814,-0.43682 -0.46143,-0.68897 -0.0733,-0.25189 -0.0849,-0.50562 -0.0357,-0.76121 0.05,-0.25506 0.14473,-0.50588 0.2839,-0.75141 0.13917,-0.2458 0.30083,-0.46885 0.48524,-0.66914 0.21193,-0.22965 0.43868,-0.41671 0.68078,-0.56091 0.24209,-0.14394 0.4953,-0.23548 0.75988,-0.27385 0.26458,-0.0386 0.53075,-0.0196 0.79851,0.0569 0.26802,0.0767 0.5334,0.22067 0.7964,0.43207 l -0.51276,0.55668 c -0.17913,-0.14817 -0.36407,-0.24738 -0.55245,-0.29686 z"
         id="path2526-9"
         style="fill:#ffffff;stroke-width:0.26458332"
         inkscape:connector-curvature="0" />
      <path
         style="fill:#ffffff;fill-opacity:1;stroke-width:0.26458332"
         d="m 210.57921,128.01835 -1.12397,1.21905 2.46497,3.56051 -0.016,0.0181 -3.93878,-1.96164 -1.22111,1.3255 5.99705,2.67581 1.19631,-1.29863 -2.41226,-3.54655 0.0165,-0.0176 3.83853,1.93631 a 7.4260602,7.4260602 0 0 0 -1.15962,-2.01538 l -3.64164,-1.89549 z"
         id="circle2520-4"
         inkscape:connector-curvature="0" />
    </g>
  </g>
</svg>
