<?xml version="1.0" encoding="UTF-8" standalone="no"?>
<!-- Created with Inkscape (http://www.inkscape.org/) -->

<svg
   width="657.57593mm"
   height="187.92244mm"
   viewBox="0 0 657.57592 187.92244"
   version="1.1"
   id="svg8"
   inkscape:version="1.1.2 (0a00cf5339, 2022-02-04)"
   sodipodi:docname="amqp-09.svg"
   xmlns:inkscape="http://www.inkscape.org/namespaces/inkscape"
   xmlns:sodipodi="http://sodipodi.sourceforge.net/DTD/sodipodi-0.dtd"
   xmlns:xlink="http://www.w3.org/1999/xlink"
   xmlns="http://www.w3.org/2000/svg"
   xmlns:svg="http://www.w3.org/2000/svg"
   xmlns:rdf="http://www.w3.org/1999/02/22-rdf-syntax-ns#"
   xmlns:cc="http://creativecommons.org/ns#"
   xmlns:dc="http://purl.org/dc/elements/1.1/">
  <defs
     id="defs2">
    <marker
       style="overflow:visible"
       id="EmptyTriangleOutM"
       refX="0"
       refY="0"
       orient="auto"
       inkscape:stockid="EmptyTriangleOutM"
       inkscape:isstock="true">
      <path
         transform="matrix(0.4,0,0,0.4,-1.8,0)"
         style="fill:context-fill;fill-rule:evenodd;stroke:context-stroke;stroke-width:1pt"
         d="M 5.77,0 -2.88,5 V -5 Z"
         id="path28818" />
    </marker>
    <marker
       style="overflow:visible"
       id="TriangleOutL"
       refX="0"
       refY="0"
       orient="auto"
       inkscape:stockid="TriangleOutL"
       inkscape:isstock="true">
      <path
         transform="scale(0.8)"
         style="fill:context-stroke;fill-rule:evenodd;stroke:context-stroke;stroke-width:1pt"
         d="M 5.77,0 -2.88,5 V -5 Z"
         id="path28797" />
    </marker>
    <marker
       style="overflow:visible"
       id="Arrow2Mend"
       refX="0"
       refY="0"
       orient="auto"
       inkscape:stockid="Arrow2Mend"
       inkscape:isstock="true">
      <path
         transform="scale(-0.6)"
         d="M 8.7185878,4.0337352 -2.2072895,0.01601326 8.7185884,-4.0017078 c -1.7454984,2.3720609 -1.7354408,5.6174519 -6e-7,8.035443 z"
         style="fill:context-stroke;fill-rule:evenodd;stroke:context-stroke;stroke-width:0.625;stroke-linejoin:round"
         id="path28682" />
    </marker>
    <marker
       inkscape:stockid="Arrow1Send"
       orient="auto"
       refY="0"
       refX="0"
       id="Arrow1Send"
       style="overflow:visible"
       inkscape:isstock="true">
      <path
         id="path1156"
         d="M 0,0 5,-5 -12.5,0 5,5 Z"
         style="fill:#838383;fill-opacity:1;fill-rule:evenodd;stroke:#838383;stroke-width:1pt;stroke-opacity:1"
         transform="matrix(-0.2,0,0,-0.2,-1.2,0)"
         inkscape:connector-curvature="0" />
    </marker>
    <marker
       inkscape:stockid="Arrow1Lend"
       orient="auto"
       refY="0"
       refX="0"
       id="Arrow1Lend"
       style="overflow:visible"
       inkscape:isstock="true">
      <path
         id="path1144"
         d="M 0,0 5,-5 -12.5,0 5,5 Z"
         style="fill:#838383;fill-opacity:1;fill-rule:evenodd;stroke:#838383;stroke-width:1pt;stroke-opacity:1"
         transform="matrix(-0.8,0,0,-0.8,-10,0)"
         inkscape:connector-curvature="0" />
    </marker>
    <linearGradient
       inkscape:collect="always"
       id="linearGradient821">
      <stop
         style="stop-color:#000583;stop-opacity:1;"
         offset="0"
         id="stop817" />
      <stop
         style="stop-color:#1590f7;stop-opacity:1"
         offset="1"
         id="stop819" />
    </linearGradient>
    <linearGradient
       inkscape:collect="always"
       xlink:href="#linearGradient821"
       id="linearGradient823-05"
       x1="66.259201"
       y1="53.961906"
       x2="66.788803"
       y2="112.17024"
       gradientUnits="userSpaceOnUse"
       gradientTransform="translate(-210.53273,-53.941072)" />
    <linearGradient
       inkscape:collect="always"
       xlink:href="#linearGradient821"
       id="linearGradient1099"
       gradientUnits="userSpaceOnUse"
       gradientTransform="translate(-210.53273,-53.941072)"
       x1="70.038963"
       y1="54.717857"
       x2="67.544754"
       y2="140.14049" />
    <marker
       inkscape:stockid="Arrow1Send"
       orient="auto"
       refY="0"
       refX="0"
       id="Arrow1Send-1"
       style="overflow:visible"
       inkscape:isstock="true">
      <path
         inkscape:connector-curvature="0"
         id="path1156-1"
         d="M 0,0 5,-5 -12.5,0 5,5 Z"
         style="fill:#838383;fill-opacity:1;fill-rule:evenodd;stroke:#838383;stroke-width:1pt;stroke-opacity:1"
         transform="matrix(-0.2,0,0,-0.2,-1.2,0)" />
    </marker>
    <marker
       inkscape:stockid="Arrow1Send"
       orient="auto"
       refY="0"
       refX="0"
       id="Arrow1Send-8"
       style="overflow:visible"
       inkscape:isstock="true">
      <path
         inkscape:connector-curvature="0"
         id="path1156-5"
         d="M 0,0 5,-5 -12.5,0 5,5 Z"
         style="fill:#838383;fill-opacity:1;fill-rule:evenodd;stroke:#838383;stroke-width:1pt;stroke-opacity:1"
         transform="matrix(-0.2,0,0,-0.2,-1.2,0)" />
    </marker>
    <linearGradient
       inkscape:collect="always"
       xlink:href="#linearGradient821"
       id="linearGradient9151"
       gradientUnits="userSpaceOnUse"
       gradientTransform="translate(-265.48333,-25.284482)"
       x1="78.693405"
       y1="102.06432"
       x2="78.763397"
       y2="140.9548" />
    <linearGradient
       inkscape:collect="always"
       xlink:href="#linearGradient821"
       id="linearGradient2008"
       gradientUnits="userSpaceOnUse"
       gradientTransform="translate(-265.48334,-24.398634)"
       x1="78.693405"
       y1="102.06432"
       x2="78.763397"
       y2="140.9548" />
    <linearGradient
       inkscape:collect="always"
       xlink:href="#linearGradient821"
       id="linearGradient2438"
       gradientUnits="userSpaceOnUse"
       gradientTransform="translate(-265.48334,-24.398634)"
       x1="78.693405"
       y1="102.06432"
       x2="78.763397"
       y2="140.9548" />
    <linearGradient
       inkscape:collect="always"
       xlink:href="#linearGradient821"
       id="linearGradient2473"
       gradientUnits="userSpaceOnUse"
       gradientTransform="translate(-265.48334,-24.398634)"
       x1="78.693405"
       y1="102.06432"
       x2="78.763397"
       y2="140.9548" />
    <marker
       inkscape:stockid="Arrow1Send"
       orient="auto"
       refY="0"
       refX="0"
       id="Arrow1Send-1-9"
       style="overflow:visible"
       inkscape:isstock="true">
      <path
         inkscape:connector-curvature="0"
         id="path1156-1-3"
         d="M 0,0 5,-5 -12.5,0 5,5 Z"
         style="fill:#838383;fill-opacity:1;fill-rule:evenodd;stroke:#838383;stroke-width:1pt;stroke-opacity:1"
         transform="matrix(-0.2,0,0,-0.2,-1.2,0)" />
    </marker>
    <marker
       inkscape:stockid="Arrow1Send"
       orient="auto"
       refY="0"
       refX="0"
       id="Arrow1Send-1-9-0"
       style="overflow:visible"
       inkscape:isstock="true">
      <path
         inkscape:connector-curvature="0"
         id="path1156-1-3-5"
         d="M 0,0 5,-5 -12.5,0 5,5 Z"
         style="fill:#838383;fill-opacity:1;fill-rule:evenodd;stroke:#838383;stroke-width:1pt;stroke-opacity:1"
         transform="matrix(-0.2,0,0,-0.2,-1.2,0)" />
    </marker>
    <marker
       inkscape:stockid="Arrow1Send"
       orient="auto"
       refY="0"
       refX="0"
       id="Arrow1Send-1-9-0-2"
       style="overflow:visible"
       inkscape:isstock="true">
      <path
         inkscape:connector-curvature="0"
         id="path1156-1-3-5-9"
         d="M 0,0 5,-5 -12.5,0 5,5 Z"
         style="fill:#838383;fill-opacity:1;fill-rule:evenodd;stroke:#838383;stroke-width:1pt;stroke-opacity:1"
         transform="matrix(-0.2,0,0,-0.2,-1.2,0)" />
    </marker>
    <marker
       inkscape:stockid="Arrow1Send"
       orient="auto"
       refY="0"
       refX="0"
       id="Arrow1Send-1-4"
       style="overflow:visible"
       inkscape:isstock="true">
      <path
         inkscape:connector-curvature="0"
         id="path1156-1-1"
         d="M 0,0 5,-5 -12.5,0 5,5 Z"
         style="fill:#838383;fill-opacity:1;fill-rule:evenodd;stroke:#838383;stroke-width:1pt;stroke-opacity:1"
         transform="matrix(-0.2,0,0,-0.2,-1.2,0)" />
    </marker>
    <marker
       inkscape:stockid="Arrow1Send"
       orient="auto"
       refY="0"
       refX="0"
       id="Arrow1Send-1-4-9"
       style="overflow:visible"
       inkscape:isstock="true">
      <path
         inkscape:connector-curvature="0"
         id="path1156-1-1-2"
         d="M 0,0 5,-5 -12.5,0 5,5 Z"
         style="fill:#838383;fill-opacity:1;fill-rule:evenodd;stroke:#838383;stroke-width:1pt;stroke-opacity:1"
         transform="matrix(-0.2,0,0,-0.2,-1.2,0)" />
    </marker>
    <marker
       inkscape:stockid="Arrow1Send"
       orient="auto"
       refY="0"
       refX="0"
       id="Arrow1Send-1-4-9-6"
       style="overflow:visible"
       inkscape:isstock="true">
      <path
         inkscape:connector-curvature="0"
         id="path1156-1-1-2-8"
         d="M 0,0 5,-5 -12.5,0 5,5 Z"
         style="fill:#838383;fill-opacity:1;fill-rule:evenodd;stroke:#838383;stroke-width:1pt;stroke-opacity:1"
         transform="matrix(-0.2,0,0,-0.2,-1.2,0)" />
    </marker>
  </defs>
  <sodipodi:namedview
     id="base"
     pagecolor="#ffffff"
     bordercolor="#666666"
     borderopacity="1.0"
     inkscape:pageopacity="0.0"
     inkscape:pageshadow="2"
     inkscape:zoom="0.7"
     inkscape:cx="1382.1429"
     inkscape:cy="335"
     inkscape:document-units="mm"
     inkscape:current-layer="layer1"
     showgrid="false"
     inkscape:window-width="1850"
     inkscape:window-height="1016"
     inkscape:window-x="70"
     inkscape:window-y="27"
     inkscape:window-maximized="1"
     fit-margin-top="0"
     fit-margin-left="0"
     fit-margin-right="0"
     fit-margin-bottom="0"
     inkscape:pagecheckerboard="0" />
  <metadata
     id="metadata5">
    <rdf:RDF>
      <cc:Work
         rdf:about="">
        <dc:format>image/svg+xml</dc:format>
        <dc:type
           rdf:resource="http://purl.org/dc/dcmitype/StillImage" />
      </cc:Work>
    </rdf:RDF>
  </metadata>
  <g
     inkscape:label="Layer 1"
     inkscape:groupmode="layer"
     id="layer1"
     transform="translate(437.17055,-7.603974)">
    <g
       id="g1185"
       transform="translate(-197.62412,8.0528975)">
      <rect
         style="opacity:1;fill:url(#linearGradient9151);fill-opacity:1;fill-rule:nonzero;stroke:none;stroke-width:0.529167;stroke-linecap:round;stroke-miterlimit:4;stroke-dasharray:1.40009, 1.96012;stroke-dashoffset:0;stroke-opacity:1;paint-order:stroke markers fill"
         id="rect815-6"
         width="105.59867"
         height="39.162025"
         x="-239.54643"
         y="76.827316"
         ry="9.9928589"
         rx="0" />
      <text
         xml:space="preserve"
         style="font-style:normal;font-variant:normal;font-weight:bold;font-stretch:normal;font-size:10.5833px;line-height:1.25;font-family:Helvetica;-inkscape-font-specification:'Helvetica, Bold';font-variant-ligatures:normal;font-variant-caps:normal;font-variant-numeric:normal;font-feature-settings:normal;text-align:center;letter-spacing:0px;word-spacing:0px;writing-mode:lr-tb;text-anchor:middle;fill:#ffffff;fill-opacity:1;stroke:none;stroke-width:0.264583;stroke-opacity:1"
         x="-187.08041"
         y="100.14452"
         id="text829-4-2"><tspan
           sodipodi:role="line"
           x="-187.08041"
           y="100.14452"
           style="font-style:normal;font-variant:normal;font-weight:bold;font-stretch:normal;font-size:10.5833px;font-family:'Liberation Sans';-inkscape-font-specification:'Liberation Sans Bold';font-variant-ligatures:normal;font-variant-caps:normal;font-variant-numeric:normal;font-feature-settings:normal;text-align:center;writing-mode:lr-tb;text-anchor:middle;fill:#ffffff;fill-opacity:1;stroke:none;stroke-width:0.264583;stroke-opacity:1"
           id="tspan831-54-3">Publisher</tspan></text>
    </g>
    <g
       id="g1185-3"
       transform="translate(8.3996452,12.374103)" />
    <g
       id="g2379"
       transform="translate(354.35312,-51.762193)">
      <rect
         style="fill:url(#linearGradient2008);fill-opacity:1;fill-rule:nonzero;stroke:none;stroke-width:0.529167;stroke-linecap:round;stroke-miterlimit:4;stroke-dasharray:1.40009, 1.96012;stroke-dashoffset:0;stroke-opacity:1;paint-order:stroke markers fill"
         id="rect815-6-8"
         width="105.59867"
         height="39.162025"
         x="-239.54643"
         y="77.713165"
         ry="9.9928589"
         rx="0" />
      <text
         xml:space="preserve"
         style="font-style:normal;font-variant:normal;font-weight:bold;font-stretch:normal;font-size:10.5833px;line-height:1.25;font-family:Helvetica;-inkscape-font-specification:'Helvetica, Bold';font-variant-ligatures:normal;font-variant-caps:normal;font-variant-numeric:normal;font-feature-settings:normal;text-align:center;letter-spacing:0px;word-spacing:0px;writing-mode:lr-tb;text-anchor:middle;fill:#ffffff;fill-opacity:1;stroke:none;stroke-width:0.264583;stroke-opacity:1"
         x="-187.08041"
         y="101.03037"
         id="text829-4-2-1"><tspan
           sodipodi:role="line"
           x="-187.08041"
           y="101.03037"
           style="font-style:normal;font-variant:normal;font-weight:bold;font-stretch:normal;font-size:10.5833px;font-family:'Liberation Sans';-inkscape-font-specification:'Liberation Sans Bold';font-variant-ligatures:normal;font-variant-caps:normal;font-variant-numeric:normal;font-feature-settings:normal;text-align:center;writing-mode:lr-tb;text-anchor:middle;fill:#ffffff;fill-opacity:1;stroke:none;stroke-width:0.264583;stroke-opacity:1"
           id="tspan831-54-3-8">Consumer</tspan></text>
    </g>
    <g
       id="g2379-6"
       transform="translate(45.478043,-138.5419)">
      <rect
         style="fill:none;fill-opacity:1;fill-rule:nonzero;stroke:#7b7b7b;stroke-width:2;stroke-linecap:round;stroke-miterlimit:4;stroke-dasharray:0.2, 0.2;stroke-dashoffset:0;stroke-opacity:1;paint-order:stroke markers fill"
         id="rect815-6-8-9"
         width="304.01907"
         height="185.89175"
         x="-320.4147"
         y="147.14587"
         ry="17.927765"
         rx="0" />
    </g>
    <text
       xml:space="preserve"
       style="font-style:normal;font-variant:normal;font-weight:bold;font-stretch:normal;font-size:10.5833px;line-height:1.25;font-family:Helvetica;-inkscape-font-specification:'Helvetica, Bold';font-variant-ligatures:normal;font-variant-caps:normal;font-variant-numeric:normal;font-feature-settings:normal;text-align:center;letter-spacing:0px;word-spacing:0px;writing-mode:lr-tb;text-anchor:middle;fill:#000000;fill-opacity:1;stroke:none;stroke-width:0.264583"
       x="-140.14601"
       y="23.394262"
       id="text829-4-6-2"><tspan
         sodipodi:role="line"
         x="-140.14601"
         y="23.394262"
         style="font-style:normal;font-variant:normal;font-weight:bold;font-stretch:normal;font-size:10.5833px;font-family:'Liberation Sans';-inkscape-font-specification:'Liberation Sans Bold';font-variant-ligatures:normal;font-variant-caps:normal;font-variant-numeric:normal;font-feature-settings:normal;text-align:center;writing-mode:lr-tb;text-anchor:middle;stroke-width:0.264583"
         id="tspan831-54-2-6">MQ Broker</tspan></text>
    <g
       id="g2379-3"
       transform="translate(354.35312,6.9358005)">
      <rect
         style="fill:url(#linearGradient2438);fill-opacity:1;fill-rule:nonzero;stroke:none;stroke-width:0.529167;stroke-linecap:round;stroke-miterlimit:4;stroke-dasharray:1.40009, 1.96012;stroke-dashoffset:0;stroke-opacity:1;paint-order:stroke markers fill"
         id="rect815-6-8-0"
         width="105.59867"
         height="39.162025"
         x="-239.54643"
         y="77.713165"
         ry="9.9928589"
         rx="0" />
      <text
         xml:space="preserve"
         style="font-style:normal;font-variant:normal;font-weight:bold;font-stretch:normal;font-size:10.5833px;line-height:1.25;font-family:Helvetica;-inkscape-font-specification:'Helvetica, Bold';font-variant-ligatures:normal;font-variant-caps:normal;font-variant-numeric:normal;font-feature-settings:normal;text-align:center;letter-spacing:0px;word-spacing:0px;writing-mode:lr-tb;text-anchor:middle;fill:#ffffff;fill-opacity:1;stroke:none;stroke-width:0.264583;stroke-opacity:1"
         x="-187.08041"
         y="101.03037"
         id="text829-4-2-1-3"><tspan
           sodipodi:role="line"
           x="-187.08041"
           y="101.03037"
           style="font-style:normal;font-variant:normal;font-weight:bold;font-stretch:normal;font-size:10.5833px;font-family:'Liberation Sans';-inkscape-font-specification:'Liberation Sans Bold';font-variant-ligatures:normal;font-variant-caps:normal;font-variant-numeric:normal;font-feature-settings:normal;text-align:center;writing-mode:lr-tb;text-anchor:middle;fill:#ffffff;fill-opacity:1;stroke:none;stroke-width:0.264583;stroke-opacity:1"
           id="tspan831-54-3-8-0">Consumer</tspan></text>
    </g>
    <g
       id="g2379-5"
       transform="translate(354.35312,65.633792)">
      <rect
         style="fill:url(#linearGradient2473);fill-opacity:1;fill-rule:nonzero;stroke:none;stroke-width:0.529167;stroke-linecap:round;stroke-miterlimit:4;stroke-dasharray:1.40009, 1.96012;stroke-dashoffset:0;stroke-opacity:1;paint-order:stroke markers fill"
         id="rect815-6-8-4"
         width="105.59867"
         height="39.162025"
         x="-239.54643"
         y="77.713165"
         ry="9.9928589"
         rx="0" />
      <text
         xml:space="preserve"
         style="font-style:normal;font-variant:normal;font-weight:bold;font-stretch:normal;font-size:10.5833px;line-height:1.25;font-family:Helvetica;-inkscape-font-specification:'Helvetica, Bold';font-variant-ligatures:normal;font-variant-caps:normal;font-variant-numeric:normal;font-feature-settings:normal;text-align:center;letter-spacing:0px;word-spacing:0px;writing-mode:lr-tb;text-anchor:middle;fill:#ffffff;fill-opacity:1;stroke:none;stroke-width:0.264583;stroke-opacity:1"
         x="-187.08041"
         y="101.03037"
         id="text829-4-2-1-0"><tspan
           sodipodi:role="line"
           x="-187.08041"
           y="101.03037"
           style="font-style:normal;font-variant:normal;font-weight:bold;font-stretch:normal;font-size:10.5833px;font-family:'Liberation Sans';-inkscape-font-specification:'Liberation Sans Bold';font-variant-ligatures:normal;font-variant-caps:normal;font-variant-numeric:normal;font-feature-settings:normal;text-align:center;writing-mode:lr-tb;text-anchor:middle;fill:#ffffff;fill-opacity:1;stroke:none;stroke-width:0.264583;stroke-opacity:1"
           id="tspan831-54-3-8-5">Consumer</tspan></text>
    </g>
    <g
       id="g25454"
       transform="translate(0,5.4851971)">
      <g
         id="g25187-2"
         style="fill:#efca00;fill-opacity:1;stroke:#838383;stroke-width:1;stroke-miterlimit:4;stroke-dasharray:none;stroke-opacity:1"
         transform="matrix(0.49708105,0,0,0.49708105,67.971449,116.66672)">
        <g
           id="g25637" />
      </g>
      <g
         id="g25187-6-6"
         style="fill:#efca00;fill-opacity:1;stroke:#838383;stroke-width:0.999837;stroke-miterlimit:4;stroke-dasharray:none;stroke-opacity:1"
         transform="matrix(0.35148938,-0.35148938,0.35148938,0.35148938,-101.4485,-174.75552)" />
      <g
         id="g28145">
        <path
           id="rect24875"
           style="fill:#efca00;fill-opacity:1;stroke:#838383;stroke-width:3.77953;stroke-miterlimit:4;stroke-dasharray:none;stroke-opacity:1;stop-color:#000000"
           d="m 71.162109,164.91406 c -12.006009,0 -24.01134,4.60118 -33.210937,13.80078 -18.377273,18.37728 -18.39811,47.95148 -0.06445,66.35547 l -0.002,0.002 0.06641,0.0644 33.162109,33.16406 -33.162109,33.16211 -0.06641,0.0664 0.002,0.002 c -18.332485,18.40403 -18.312328,47.9785 0.06445,66.35547 18.377575,18.37757 47.951551,18.39702 66.355468,0.0625 l 0.002,0.002 0.0645,-0.0644 33.16406,-33.16406 33.125,33.125 c 0.0113,0.0113 0.022,0.0262 0.0371,0.0391 l 0.0352,0.0312 c 18.40157,18.3668 48.0022,18.35615 66.39062,-0.0312 18.38838,-18.38842 18.39712,-47.98901 0.0293,-66.39063 l -33.19532,-33.19531 33.16407,-33.16406 c 18.39923,-18.39922 18.39923,-48.02264 0,-66.42188 -9.1996,-9.1996 -21.20493,-13.80078 -33.21094,-13.80078 -12.00601,0 -24.01329,4.60118 -33.21289,13.80078 l -33.16406,33.16407 -33.16211,-33.16407 -0.0645,-0.0664 -0.002,0.002 c -9.190858,-9.15607 -21.1672,-13.73655 -33.144561,-13.73655 z"
           transform="matrix(0.26458333,0,0,0.26458333,-247.00116,25.344648)" />
        <text
           xml:space="preserve"
           style="font-style:normal;font-variant:normal;font-weight:bold;font-stretch:normal;font-size:10.5833px;line-height:1.25;font-family:Helvetica;-inkscape-font-specification:'Helvetica, Bold';font-variant-ligatures:normal;font-variant-caps:normal;font-variant-numeric:normal;font-feature-settings:normal;text-align:center;letter-spacing:0px;word-spacing:0px;writing-mode:lr-tb;text-anchor:middle;fill:#000000;fill-opacity:1;stroke:none;stroke-width:0.264583"
           x="-210.78407"
           y="101.69007"
           id="text829-4-6"><tspan
             sodipodi:role="line"
             x="-210.78407"
             y="101.69007"
             style="font-style:normal;font-variant:normal;font-weight:bold;font-stretch:normal;font-size:10.5833px;font-family:'Liberation Sans';-inkscape-font-specification:'Liberation Sans Bold';font-variant-ligatures:normal;font-variant-caps:normal;font-variant-numeric:normal;font-feature-settings:normal;text-align:center;writing-mode:lr-tb;text-anchor:middle;stroke-width:0.264583"
             id="tspan831-54-2">Exchange</tspan></text>
      </g>
    </g>
    <g
       id="g26957-2"
       transform="translate(28.112436,-11.38294)">
      <path
         id="rect24875-6-6-22"
         style="fill:#efca00;fill-opacity:1;stroke:#838383;stroke-width:4.66889;stroke-miterlimit:4;stroke-dasharray:none;stroke-opacity:1;stop-color:#000000"
         d="m 465.10938,-240.69336 v 0.002 c -25.87784,0.0453 -46.70313,32.13776 -46.70313,71.9961 0,39.85834 20.82529,71.950803 46.70313,71.996091 v 0.002 h 0.0547 186.97266 V -240.69336 H 465.16406 Z"
         transform="matrix(0.26458333,0,0,0.26458333,-207.46447,101.54888)" />
      <rect
         style="fill:#efca00;fill-opacity:1;stroke:#838383;stroke-width:1.23531;stroke-miterlimit:4;stroke-dasharray:none;stroke-opacity:1;stop-color:#000000"
         id="rect24875-6-5-0-5"
         width="24.742128"
         height="38.09856"
         x="22.573128"
         y="37.865589"
         ry="34.288704"
         transform="scale(-1,1)" />
      <text
         xml:space="preserve"
         style="font-style:normal;font-variant:normal;font-weight:bold;font-stretch:normal;font-size:10.5833px;line-height:1.25;font-family:Helvetica;-inkscape-font-specification:'Helvetica, Bold';font-variant-ligatures:normal;font-variant-caps:normal;font-variant-numeric:normal;font-feature-settings:normal;text-align:center;letter-spacing:0px;word-spacing:0px;writing-mode:lr-tb;text-anchor:middle;fill:#000000;fill-opacity:1;stroke:none;stroke-width:0.264583"
         x="-69.085793"
         y="59.568489"
         id="text829-4-6-1"><tspan
           sodipodi:role="line"
           x="-69.085793"
           y="59.568489"
           style="font-style:normal;font-variant:normal;font-weight:bold;font-stretch:normal;font-size:10.5833px;font-family:'Liberation Sans';-inkscape-font-specification:'Liberation Sans Bold';font-variant-ligatures:normal;font-variant-caps:normal;font-variant-numeric:normal;font-feature-settings:normal;text-align:center;writing-mode:lr-tb;text-anchor:middle;stroke-width:0.264583"
           id="tspan831-54-2-3">Queue</tspan></text>
    </g>
    <g
       id="g26957-2-0"
       transform="translate(28.112436,47.315054)">
      <path
         id="rect24875-6-6-22-2"
         style="fill:#efca00;fill-opacity:1;stroke:#838383;stroke-width:4.66889;stroke-miterlimit:4;stroke-dasharray:none;stroke-opacity:1;stop-color:#000000"
         d="m 465.10938,-240.69336 v 0.002 c -25.87784,0.0453 -46.70313,32.13776 -46.70313,71.9961 0,39.85834 20.82529,71.950803 46.70313,71.996091 v 0.002 h 0.0547 186.97266 V -240.69336 H 465.16406 Z"
         transform="matrix(0.26458333,0,0,0.26458333,-207.46447,101.54888)" />
      <rect
         style="fill:#efca00;fill-opacity:1;stroke:#838383;stroke-width:1.23531;stroke-miterlimit:4;stroke-dasharray:none;stroke-opacity:1;stop-color:#000000"
         id="rect24875-6-5-0-5-8"
         width="24.742128"
         height="38.09856"
         x="22.573128"
         y="37.865589"
         ry="34.288704"
         transform="scale(-1,1)" />
      <text
         xml:space="preserve"
         style="font-style:normal;font-variant:normal;font-weight:bold;font-stretch:normal;font-size:10.5833px;line-height:1.25;font-family:Helvetica;-inkscape-font-specification:'Helvetica, Bold';font-variant-ligatures:normal;font-variant-caps:normal;font-variant-numeric:normal;font-feature-settings:normal;text-align:center;letter-spacing:0px;word-spacing:0px;writing-mode:lr-tb;text-anchor:middle;fill:#000000;fill-opacity:1;stroke:none;stroke-width:0.264583"
         x="-69.085793"
         y="59.568489"
         id="text829-4-6-1-3"><tspan
           sodipodi:role="line"
           x="-69.085793"
           y="59.568489"
           style="font-style:normal;font-variant:normal;font-weight:bold;font-stretch:normal;font-size:10.5833px;font-family:'Liberation Sans';-inkscape-font-specification:'Liberation Sans Bold';font-variant-ligatures:normal;font-variant-caps:normal;font-variant-numeric:normal;font-feature-settings:normal;text-align:center;writing-mode:lr-tb;text-anchor:middle;stroke-width:0.264583"
           id="tspan831-54-2-3-8">Queue</tspan></text>
    </g>
    <g
       id="g26957-2-04"
       transform="translate(28.112436,106.01305)">
      <path
         id="rect24875-6-6-22-0"
         style="fill:#efca00;fill-opacity:1;stroke:#838383;stroke-width:4.66889;stroke-miterlimit:4;stroke-dasharray:none;stroke-opacity:1;stop-color:#000000"
         d="m 465.10938,-240.69336 v 0.002 c -25.87784,0.0453 -46.70313,32.13776 -46.70313,71.9961 0,39.85834 20.82529,71.950803 46.70313,71.996091 v 0.002 h 0.0547 186.97266 V -240.69336 H 465.16406 Z"
         transform="matrix(0.26458333,0,0,0.26458333,-207.46447,101.54888)" />
      <rect
         style="fill:#efca00;fill-opacity:1;stroke:#838383;stroke-width:1.23531;stroke-miterlimit:4;stroke-dasharray:none;stroke-opacity:1;stop-color:#000000"
         id="rect24875-6-5-0-5-9"
         width="24.742128"
         height="38.09856"
         x="22.573128"
         y="37.865589"
         ry="34.288704"
         transform="scale(-1,1)" />
      <text
         xml:space="preserve"
         style="font-style:normal;font-variant:normal;font-weight:bold;font-stretch:normal;font-size:10.5833px;line-height:1.25;font-family:Helvetica;-inkscape-font-specification:'Helvetica, Bold';font-variant-ligatures:normal;font-variant-caps:normal;font-variant-numeric:normal;font-feature-settings:normal;text-align:center;letter-spacing:0px;word-spacing:0px;writing-mode:lr-tb;text-anchor:middle;fill:#000000;fill-opacity:1;stroke:none;stroke-width:0.264583"
         x="-69.085793"
         y="59.568489"
         id="text829-4-6-1-1"><tspan
           sodipodi:role="line"
           x="-69.085793"
           y="59.568489"
           style="font-style:normal;font-variant:normal;font-weight:bold;font-stretch:normal;font-size:10.5833px;font-family:'Liberation Sans';-inkscape-font-specification:'Liberation Sans Bold';font-variant-ligatures:normal;font-variant-caps:normal;font-variant-numeric:normal;font-feature-settings:normal;text-align:center;writing-mode:lr-tb;text-anchor:middle;stroke-width:0.264583"
           id="tspan831-54-2-3-9">Queue</tspan></text>
    </g>
    <path
       style="fill:none;stroke:#7b7b7b;stroke-width:6.03442;stroke-linecap:butt;stroke-linejoin:miter;stroke-miterlimit:4;stroke-dasharray:none;stroke-opacity:1;marker-end:url(#Arrow1Send-1)"
       d="m -323.27536,104.56262 69.21529,-0.13198"
       id="path28555" />
    <path
       style="fill:none;stroke:#7b7b7b;stroke-width:6.03442;stroke-linecap:butt;stroke-linejoin:miter;stroke-miterlimit:4;stroke-dasharray:none;stroke-opacity:1;marker-end:url(#Arrow1Send-1-4)"
       d="M 18.298429,45.63338 87.513719,45.5014"
       id="path28555-2" />
    <path
       style="fill:none;stroke:#7b7b7b;stroke-width:6.03442;stroke-linecap:butt;stroke-linejoin:miter;stroke-miterlimit:4;stroke-dasharray:none;stroke-opacity:1;marker-end:url(#Arrow1Send-1-9)"
       d="m -163.31793,104.55037 69.215257,-0.13198"
       id="path28555-6" />
    <path
       style="opacity:1;fill:none;stroke:#7b7b7b;stroke-width:6;stroke-linecap:butt;stroke-linejoin:miter;stroke-miterlimit:4;stroke-dasharray:none;stroke-opacity:1;marker-end:url(#Arrow1Send-1-9-0)"
       d="M -162.52056,81.871247 -92.746126,51.372626"
       id="path28555-6-0" />
    <path
       style="fill:none;stroke:#7b7b7b;stroke-width:6;stroke-linecap:butt;stroke-linejoin:miter;stroke-miterlimit:4;stroke-dasharray:none;stroke-opacity:1;marker-end:url(#Arrow1Send-1-9-0-2)"
       d="m -162.52057,127.02661 69.774433,30.49879"
       id="path28555-6-0-4" />
    <text
       xml:space="preserve"
       style="font-style:normal;font-variant:normal;font-weight:bold;font-stretch:normal;font-size:10.5833px;line-height:1.25;font-family:Helvetica;-inkscape-font-specification:'Helvetica, Bold';font-variant-ligatures:normal;font-variant-caps:normal;font-variant-numeric:normal;font-feature-settings:normal;text-align:center;letter-spacing:0px;word-spacing:0px;writing-mode:lr-tb;text-anchor:middle;fill:#000000;fill-opacity:1;stroke:none;stroke-width:0.264583"
       x="-298.06793"
       y="98.179237"
       id="text829-4-6-4"><tspan
         sodipodi:role="line"
         x="-298.06793"
         y="98.179237"
         style="font-style:normal;font-variant:normal;font-weight:bold;font-stretch:normal;font-size:8.46667px;font-family:'Liberation Sans';-inkscape-font-specification:'Liberation Sans, Bold';font-variant-ligatures:normal;font-variant-caps:normal;font-variant-numeric:normal;font-variant-east-asian:normal;text-align:center;writing-mode:lr-tb;text-anchor:middle;stroke-width:0.264583"
         id="tspan831-54-2-9">publish</tspan></text>
    <text
       xml:space="preserve"
       style="font-style:normal;font-variant:normal;font-weight:bold;font-stretch:normal;font-size:10.5833px;line-height:1.25;font-family:Helvetica;-inkscape-font-specification:'Helvetica, Bold';font-variant-ligatures:normal;font-variant-caps:normal;font-variant-numeric:normal;font-feature-settings:normal;text-align:center;letter-spacing:0px;word-spacing:0px;writing-mode:lr-tb;text-anchor:middle;fill:#000000;fill-opacity:1;stroke:none;stroke-width:0.264583"
       x="50.452103"
       y="39.529552"
       id="text829-4-6-4-8"><tspan
         sodipodi:role="line"
         x="50.452103"
         y="39.529552"
         style="font-style:normal;font-variant:normal;font-weight:bold;font-stretch:normal;font-size:8.46667px;font-family:'Liberation Sans';-inkscape-font-specification:'Liberation Sans, Bold';font-variant-ligatures:normal;font-variant-caps:normal;font-variant-numeric:normal;font-variant-east-asian:normal;text-align:center;writing-mode:lr-tb;text-anchor:middle;stroke-width:0.264583"
         id="tspan831-54-2-9-8">consume</tspan></text>
    <path
       style="fill:none;stroke:#7b7b7b;stroke-width:6.03442;stroke-linecap:butt;stroke-linejoin:miter;stroke-miterlimit:4;stroke-dasharray:none;stroke-opacity:1;marker-end:url(#Arrow1Send-1-4-9)"
       d="m 18.298429,163.02936 69.21529,-0.13198"
       id="path28555-2-8" />
    <path
       style="fill:none;stroke:#7b7b7b;stroke-width:6.03442;stroke-linecap:butt;stroke-linejoin:miter;stroke-miterlimit:4;stroke-dasharray:none;stroke-opacity:1;marker-end:url(#Arrow1Send-1-4-9-6)"
       d="m 18.298431,104.33137 69.215285,-0.13198"
       id="path28555-2-8-3" />
    <text
       xml:space="preserve"
       style="font-style:normal;font-variant:normal;font-weight:bold;font-stretch:normal;font-size:10.5833px;line-height:1.25;font-family:Helvetica;-inkscape-font-specification:'Helvetica, Bold';font-variant-ligatures:normal;font-variant-caps:normal;font-variant-numeric:normal;font-feature-settings:normal;text-align:center;letter-spacing:0px;word-spacing:0px;writing-mode:lr-tb;text-anchor:middle;fill:#000000;fill-opacity:1;stroke:none;stroke-width:0.264583"
       x="50.452103"
       y="98.509071"
       id="text829-4-6-4-8-8"><tspan
         sodipodi:role="line"
         x="50.452103"
         y="98.509071"
         style="font-style:normal;font-variant:normal;font-weight:bold;font-stretch:normal;font-size:8.46667px;font-family:'Liberation Sans';-inkscape-font-specification:'Liberation Sans, Bold';font-variant-ligatures:normal;font-variant-caps:normal;font-variant-numeric:normal;font-variant-east-asian:normal;text-align:center;writing-mode:lr-tb;text-anchor:middle;stroke-width:0.264583"
         id="tspan831-54-2-9-8-8">consume</tspan></text>
    <text
       xml:space="preserve"
       style="font-style:normal;font-variant:normal;font-weight:bold;font-stretch:normal;font-size:10.5833px;line-height:1.25;font-family:Helvetica;-inkscape-font-specification:'Helvetica, Bold';font-variant-ligatures:normal;font-variant-caps:normal;font-variant-numeric:normal;font-feature-settings:normal;text-align:center;letter-spacing:0px;word-spacing:0px;writing-mode:lr-tb;text-anchor:middle;fill:#000000;fill-opacity:1;stroke:none;stroke-width:0.264583"
       x="50.452103"
       y="157.55531"
       id="text829-4-6-4-8-8-8"><tspan
         sodipodi:role="line"
         x="50.452103"
         y="157.55531"
         style="font-style:normal;font-variant:normal;font-weight:bold;font-stretch:normal;font-size:8.46667px;font-family:'Liberation Sans';-inkscape-font-specification:'Liberation Sans, Bold';font-variant-ligatures:normal;font-variant-caps:normal;font-variant-numeric:normal;font-variant-east-asian:normal;text-align:center;writing-mode:lr-tb;text-anchor:middle;stroke-width:0.264583"
         id="tspan831-54-2-9-8-8-3">consume</tspan></text>
    <text
       xml:space="preserve"
       style="font-style:normal;font-variant:normal;font-weight:bold;font-stretch:normal;font-size:10.5833px;line-height:1.25;font-family:Helvetica;-inkscape-font-specification:'Helvetica, Bold';font-variant-ligatures:normal;font-variant-caps:normal;font-variant-numeric:normal;font-feature-settings:normal;text-align:center;letter-spacing:0px;word-spacing:0px;writing-mode:lr-tb;text-anchor:middle;fill:#000000;fill-opacity:1;stroke:none;stroke-width:0.264583"
       x="-133.47498"
       y="98.710472"
       id="text829-4-6-4-3"><tspan
         sodipodi:role="line"
         x="-133.47498"
         y="98.710472"
         style="font-style:normal;font-variant:normal;font-weight:bold;font-stretch:normal;font-size:8.46667px;font-family:'Liberation Sans';-inkscape-font-specification:'Liberation Sans, Bold';font-variant-ligatures:normal;font-variant-caps:normal;font-variant-numeric:normal;font-variant-east-asian:normal;text-align:center;writing-mode:lr-tb;text-anchor:middle;stroke-width:0.264583"
         id="tspan831-54-2-9-5">route</tspan></text>
    <text
       xml:space="preserve"
       style="font-style:normal;font-variant:normal;font-weight:bold;font-stretch:normal;font-size:10.5833px;line-height:1.25;font-family:Helvetica;-inkscape-font-specification:'Helvetica, Bold';font-variant-ligatures:normal;font-variant-caps:normal;font-variant-numeric:normal;font-feature-settings:normal;text-align:center;letter-spacing:0px;word-spacing:0px;writing-mode:lr-tb;text-anchor:middle;fill:#000000;fill-opacity:1;stroke:none;stroke-width:0.264583"
       x="-133.47498"
       y="61.139603"
       id="text829-4-6-4-3-1"><tspan
         sodipodi:role="line"
         x="-133.47498"
         y="61.139603"
         style="font-style:normal;font-variant:normal;font-weight:bold;font-stretch:normal;font-size:8.46667px;font-family:'Liberation Sans';-inkscape-font-specification:'Liberation Sans, Bold';font-variant-ligatures:normal;font-variant-caps:normal;font-variant-numeric:normal;font-variant-east-asian:normal;text-align:center;writing-mode:lr-tb;text-anchor:middle;stroke-width:0.264583"
         id="tspan831-54-2-9-5-7">route</tspan></text>
    <text
       xml:space="preserve"
       style="font-style:normal;font-variant:normal;font-weight:bold;font-stretch:normal;font-size:10.5833px;line-height:1.25;font-family:Helvetica;-inkscape-font-specification:'Helvetica, Bold';font-variant-ligatures:normal;font-variant-caps:normal;font-variant-numeric:normal;font-feature-settings:normal;text-align:center;letter-spacing:0px;word-spacing:0px;writing-mode:lr-tb;text-anchor:middle;fill:#000000;fill-opacity:1;stroke:none;stroke-width:0.264583"
       x="-133.47498"
       y="131.10112"
       id="text829-4-6-4-3-1-4"><tspan
         sodipodi:role="line"
         x="-133.47498"
         y="131.10112"
         style="font-style:normal;font-variant:normal;font-weight:bold;font-stretch:normal;font-size:8.46667px;font-family:'Liberation Sans';-inkscape-font-specification:'Liberation Sans, Bold';font-variant-ligatures:normal;font-variant-caps:normal;font-variant-numeric:normal;font-variant-east-asian:normal;text-align:center;writing-mode:lr-tb;text-anchor:middle;stroke-width:0.264583"
         id="tspan831-54-2-9-5-7-3">route</tspan></text>
  </g>
</svg>
